{
    "key": "group_57f6869431c76",
    "title": "Tag Filters for each category",
    "fields": [
        {
            "key": "field_57fe9d157e8c6",
            "label": "Tag Filters - Brand",
            "name": "tag_filters_brand",
            "type": "taxonomy",
            "instructions": "Use this option to add tag-filters and filter products based on brand.",
            "required": 0,
            "conditional_logic": 0,
            "wrapper": {
                "width": "",
                "class": "",
                "id": ""
            },
            "taxonomy": "product_tag",
            "field_type": "multi_select",
            "allow_null": 0,
            "add_term": 0,
            "save_terms": 0,
            "load_terms": 0,
            "return_format": "object",
            "multiple": 0
        },
        {
            "key": "field_58aa0c4acae5c",
            "label": "Tag Filters - Color",
            "name": "tag_filters_color",
            "type": "taxonomy",
            "instructions": "Filter products by color",
            "required": 0,
            "conditional_logic": 0,
            "wrapper": {
                "width": "",
                "class": "",
                "id": ""
            },
            "taxonomy": "product_tag",
            "field_type": "multi_select",
            "allow_null": 0,
            "add_term": 0,
            "save_terms": 0,
            "load_terms": 0,
            "return_format": "object",
            "multiple": 0
        },
        {
            "key": "field_58aa0c6ccae5d",
            "label": "Tag Filters - Size",
            "name": "tag_filters_size",
            "type": "taxonomy",
            "instructions": "Filter by size. For example, frames would be tags: 21, 20.75 etc. For clothes: Large, Medium etc.",
            "required": 0,
            "conditional_logic": 0,
            "wrapper": {
                "width": "",
                "class": "",
                "id": ""
            },
            "taxonomy": "product_tag",
            "field_type": "multi_select",
            "allow_null": 0,
            "add_term": 0,
            "save_terms": 0,
            "load_terms": 0,
            "return_format": "object",
            "multiple": 0
        }
    ],
    "location": [
        [
            {
                "param": "taxonomy",
                "operator": "==",
                "value": "product_cat"
            }
        ]
    ],
    "menu_order": 0,
    "position": "normal",
    "style": "default",
    "label_placement": "top",
    "instruction_placement": "label",
    "hide_on_screen": "",
    "active": true,
    "description": "",
    "modified": 1599721259
}